[
     {
          "hora": "123123", 
          "nombre": "12312123", 
          "rut": "asdasd", 
          "apellido": "asdasd", 
          "doctor": "asda"
     }, 
     {
          "hora": "23.00", 
          "nombre": "Elizabeth", 
          "apellido": "P\u00e9rez", 
          "rut": "20.030.476-4", 
          "doctor": "Fabio"
     }
]